{
	"scripts": {
		"build": "tsc --project ./node_modules/template/tsconfig.json",
		"coverage": "nyc --nycrc-path=./node_modules/template/.nycrc.json mocha build/**/*.test.js --config ./node_modules/template/.mocharc.jsonc",
		"lint": "eslint ./source --ext .ts",
		"test": "mocha build/**/*.test.js --config ./node_modules/template/.mocharc.jsonc",
		"testNoParallel": "mocha --no-parallel build/**/*.test.js --config ./node_modules/template/.mocharc.jsonc"
	},
	"devDependencies": {
		"template": "git+https://gitlab.com/Vimtekken/nodejs-template.git"
	}
}